power_measurement/DATA_POWER/DATA.csv

;Scopy version,f4beeb1
;Exported on,mardi décembre 17/12/2024
;Device,M2K
;Nr of samples,16937
;Sample rate,1000
;Tool,Oscilloscope
;Additional Information,
Sample,Time(S),CH1(V),CH2(V)
0,0,0.0556432,-0.0415663
1,0.001,0.0556432,-0.0415663
2,0.002,0.0556432,-0.0415663
3,0.003,0.0556432,-0.0415663
4,0.004,0.0556432,-0.0415663
5,0.005,0.0556432,-0.0415663
6,0.006,0.0556432,-0.0415663
7,0.007,0.0556432,-0.0415663
8,0.008,0.0625986,-0.0415663
9,0.009,0.154758,-0.0415663
10,0.01,0.146063,-0.0415663
11,0.011,0.0730317,-0.0415663
12,0.012,0.0573821,-0.0415663
13,0.013,0.0556432,-0.0415663
14,0.014,0.0556432,-0.0415663
15,0.015,0.0556432,-0.0415663
16,0.016,0.0556432,-0.0415663
17,0.017,0.0556432,-0.0415663
18,0.018,0.0556432,-0.0415663
19,0.019,0.0556432,-0.0415663
20,0.02,0.0556432,-0.0415663
21,0.021,0.0556432,-0.0415663
22,0.022,0.0556432,-0.0415663
23,0.023,0.0556432,-0.0415663
24,0.024,0.0556432,-0.0415663
25,0.025,0.0556432,-0.0415663
26,0.026,0.0556432,-0.0415663
27,0.027,0.0556432,-0.0415663
28,0.028,0.0556432,-0.0415663
29,0.029,0.0556432,-0.0415663
30,0.03,0.0556432,-0.0415663
31,0.031,0.0556432,-0.0415663
32,0.032,0.0556432,-0.0415663
33,0.033,0.0556432,-0.0415663
34,0.034,0.0556432,-0.0415663
35,0.035,0.0556432,-0.0415663
36,0.036,0.0556432,-0.0415663
37,0.037,0.0556432,-0.0415663
38,0.038,0.0556432,-0.0415663
39,0.039,0.0556432,-0.0415663
40,0.04,0.0556432,-0.0415663
41,0.041,0.0556432,-0.0415663
42,0.042,0.0556432,-0.0415663
43,0.043,0.0556432,-0.0415663
44,0.044,0.0556432,-0.0415663
45,0.045,0.0556432,-0.0415663
46,0.046,0.0556432,-0.0415663
47,0.047,0.0556432,-0.0415663
48,0.048,0.0556432,-0.0415663
49,0.049,0.0556432,-0.0415663
50,0.05,0.0556432,-0.0415663
51,0.051,0.0556432,-0.0415663
52,0.052,0.0556432,-0.0415663
53,0.053,0.0556432,-0.0415663
54,0.054,0.0556432,-0.0415663
55,0.055,0.0556432,-0.0415663
56,0.056,0.0556432,-0.0415663
57,0.057,0.0556432,-0.0415663
58,0.058,0.0643375,-0.0415663
59,0.059,0.154758,-0.0415663
60,0.06,0.142586,-0.0415663
61,0.061,0.0730317,-0.0415663
62,0.062,0.0556432,-0.0415663
63,0.063,0.0556432,-0.0415663
64,0.064,0.0556432,-0.0415663
65,0.065,0.0556432,-0.0415663
66,0.066,0.0556432,-0.0415663
67,0.067,0.0556432,-0.0415663
68,0.068,0.0556432,-0.0415663
69,0.069,0.0556432,-0.0415663
70,0.07,0.0556432,-0.0415663
71,0.071,0.0556432,-0.0415663
72,0.072,0.0556432,-0.0415663
73,0.073,0.0556432,-0.0415663
74,0.074,0.0556432,-0.0415663
75,0.075,0.0556432,-0.0415663
76,0.076,0.0556432,-0.0415663
77,0.077,0.0556432,-0.0415663
78,0.078,0.0556432,-0.0415663
79,0.079,0.0556432,-0.0415663
80,0.08,0.0556432,-0.0415663
81,0.081,0.0556432,-0.0415663
82,0.082,0.0556432,-0.0415663
83,0.083,0.0556432,-0.0415663
84,0.084,0.0556432,-0.0415663
85,0.085,0.0556432,-0.0415663
86,0.086,0.0556432,-0.0415663
87,0.087,0.0556432,-0.0415663
88,0.088,0.0556432,-0.0415663
89,0.089,0.0556432,-0.0415663
90,0.09,0.0556432,-0.0415663
91,0.091,0.0556432,-0.0415663
92,0.092,0.0556432,-0.0415663
93,0.093,0.0556432,-0.0415663
94,0.094,0.0556432,-0.0415663
95,0.095,0.0556432,-0.0415663
96,0.096,0.0556432,-0.0415663
97,0.097,0.0556432,-0.0415663
98,0.098,0.0556432,-0.0415663
99,0.099,0.0556432,-0.0415663
100,0.1,0.0556432,-0.0415663
101,0.101,0.0556432,-0.0415663
102,0.102,0.0556432,-0.0415663
103,0.103,0.0556432,-0.0415663
104,0.104,0.0556432,-0.0415663
105,0.105,0.0556432,-0.0415663
106,0.106,0.0556432,-0.0415663
107,0.107,0.0556432,-0.0415663
108,0.108,0.0660763,-0.0415663
109,0.109,0.156497,-0.0415663
110,0.11,0.142586,-0.0415663
111,0.111,0.0712929,-0.0415663
112,0.112,0.0556432,-0.0415663
113,0.113,0.0556432,-0.0415663
114,0.114,0.0556432,-0.0415663
115,0.115,0.0556432,-0.0415663
116,0.116,0.0556432,-0.0415663
117,0.117,0.0556432,-0.0415663
118,0.118,0.0556432,-0.0415663
119,0.119,0.0556432,-0.0415663
120,0.12,0.0556432,-0.0415663
121,0.121,0.0556432,-0.0415663
122,0.122,0.0556432,-0.0415663
123,0.123,0.0556432,-0.0415663
124,0.124,0.0556432,-0.0415663
125,0.125,0.0556432,-0.0415663
126,0.126,0.0556432,-0.0415663
127,0.127,0.0556432,-0.0415663
128,0.128,0.0556432,-0.0415663
129,0.129,0.0556432,-0.0415663
130,0.13,0.0556432,-0.0415663
131,0.131,0.0556432,-0.0415663
132,0.132,0.0556432,-0.0415663
133,0.133,0.0556432,-0.0415663
134,0.134,0.0556432,-0.0415663
135,0.135,0.0556432,-0.0415663
136,0.136,0.0556432,-0.0415663
137,0.137,0.0556432,-0.0415663
138,0.138,0.0556432,-0.0415663
139,0.139,0.0556432,-0.0415663
140,0.14,0.0556432,-0.0415663
141,0.141,0.0556432,-0.0415663
142,0.142,0.0556432,-0.0415663
143,0.143,0.0556432,-0.0415663
144,0.144,0.0556432,-0.0415663
145,0.145,0.0556432,-0.0415663
146,0.146,0.0556432,-0.0415663
147,0.147,0.0556432,-0.0415663
148,0.148,0.0556432,-0.0415663
149,0.149,0.0556432,-0.0415663
150,0.15,0.0556432,-0.0415663
151,0.151,0.0556432,-0.0415663
152,0.152,0.0556432,-0.0415663
153,0.153,0.0556432,-0.0415663
154,0.154,0.0556432,-0.0415663
155,0.155,0.0556432,-0.0415663
156,0.156,0.0556432,-0.0415663
157,0.157,0.0556432,-0.0415663
158,0.158,0.0660763,-0.0415663
159,0.159,0.154758,-0.0415663
160,0.16,0.142586,-0.0415663
161,0.161,0.069554,-0.0415663
162,0.162,0.0573821,-0.0415663
163,0.163,0.0556432,-0.0415663
164,0.164,0.0556432,-0.0415663
165,0.165,0.0556432,-0.0415663
166,0.166,0.0556432,-0.0415663
167,0.167,0.0556432,-0.0415663
168,0.168,0.0556432,-0.0415663
169,0.169,0.0556432,-0.0415663
170,0.17,0.0556432,-0.0415663
171,0.171,0.0556432,-0.0415663
172,0.172,0.0556432,-0.0415663
173,0.173,0.0556432,-0.0415663
174,0.174,0.0556432,-0.0415663
175,0.175,0.0556432,-0.0415663
176,0.176,0.0556432,-0.0415663
177,0.177,0.0556432,-0.0415663
178,0.178,0.0556432,-0.0415663
179,0.179,0.0556432,-0.0415663
180,0.18,0.0556432,-0.0415663
181,0.181,0.0556432,-0.0415663
182,0.182,0.0556432,-0.0415663
183,0.183,0.0556432,-0.0415663
184,0.184,0.0556432,-0.0415663
185,0.185,0.0556432,-0.0415663
186,0.186,0.0556432,-0.0415663
187,0.187,0.0556432,-0.0415663
188,0.188,0.0556432,-0.0415663
189,0.189,0.0556432,-0.0415663
190,0.19,0.0556432,-0.0415663
191,0.191,0.0556432,-0.0415663
192,0.192,0.0556432,-0.0415663
193,0.193,0.0556432,-0.0415663
194,0.194,0.0556432,-0.0415663
195,0.195,0.0556432,-0.0415663
196,0.196,0.0556432,-0.0415663
197,0.197,0.0556432,-0.0415663
198,0.198,0.0556432,-0.0415663
199,0.199,0.0556432,-0.0415663
200,0.2,0.0556432,-0.0415663
201,0.201,0.0556432,-0.0415663
202,0.202,0.0556432,-0.0415663
203,0.203,0.0556432,-0.0415663
204,0.204,0.0556432,-0.0415663
205,0.205,0.0556432,-0.0415663
206,0.206,0.0556432,-0.0415663
207,0.207,0.0556432,-0.0415663
208,0.208,0.069554,-0.0415663
209,0.209,0.154758,-0.0415663
210,0.21,0.144325,-0.0415663
211,0.211,0.0660763,-0.0415663
212,0.212,0.0573821,-0.0415663
213,0.213,0.0556432,-0.0415663
214,0.214,0.0556432,-0.0415663
215,0.215,0.0556432,-0.0415663
216,0.216,0.0556432,-0.0415663
217,0.217,0.0556432,-0.0415663
218,0.218,0.0556432,-0.0415663
219,0.219,0.0556432,-0.0415663
220,0.22,0.0556432,-0.0415663
221,0.221,0.0556432,-0.0415663
222,0.222,0.0556432,-0.0415663
223,0.223,0.0556432,-0.0415663
224,0.224,0.0556432,-0.0415663
225,0.225,0.0556432,-0.0415663
226,0.226,0.0556432,-0.0415663
227,0.227,0.0556432,-0.0415663
228,0.228,0.0556432,-0.0415663
229,0.229,0.0556432,-0.0415663
230,0.23,0.0556432,-0.0415663
231,0.231,0.0556432,-0.0415663
232,0.232,0.0556432,-0.0415663
233,0.233,0.0556432,-0.0415663
234,0.234,0.0556432,-0.0415663
235,0.235,0.0556432,-0.0415663
236,0.236,0.0556432,-0.0415663
237,0.237,0.0556432,-0.0415663
238,0.238,0.0556432,-0.0415663
239,0.239,0.0556432,-0.0415663
240,0.24,0.0556432,-0.0415663
241,0.241,0.0556432,-0.0415663
242,0.242,0.0556432,-0.0415663
243,0.243,0.0556432,-0.0415663
244,0.244,0.0556432,-0.0415663
245,0.245,0.0556432,-0.0415663
246,0.246,0.0556432,-0.0415663
247,0.247,0.0556432,-0.0415663
248,0.248,0.0556432,-0.0415663
249,0.249,0.0556432,-0.0415663
250,0.25,0.0556432,-0.0415663
251,0.251,0.0556432,-0.0415663
252,0.252,0.0556432,-0.0415663
253,0.253,0.0556432,-0.0415663
254,0.254,0.0556432,-0.0415663
255,0.255,0.0556432,-0.0415663
256,0.256,0.0556432,-0.0415663
257,0.257,0.0556432,-0.0415663
258,0.258,0.0730317,-0.0415663
259,0.259,0.154758,-0.0415663
260,0.26,0.13563,-0.0415663
261,0.261,0.130414,-0.0415663
262,0.262,0.132153,-0.0415663
263,0.263,0.132153,-0.0415663
264,0.264,0.132153,-0.0415663
265,0.265,0.132153,-0.0415663
266,0.266,0.13563,-0.0415663
267,0.267,0.13563,-0.0415663
268,0.268,0.13563,-0.0415663
269,0.269,0.13563,-0.0415663
270,0.27,0.13563,-0.0415663
271,0.271,0.13563,-0.0415663
272,0.272,0.13563,-0.0415663
273,0.273,0.13563,-0.0415663
274,0.274,0.13563,-0.0415663
275,0.275,0.13563,-0.0415663
276,0.276,0.13563,-0.0415663
277,0.277,0.13563,-0.0415663
278,0.278,0.13563,-0.0415663
279,0.279,0.132153,-0.0415663
280,0.28,0.133892,-0.0415663
281,0.281,0.133892,-0.0415663
282,0.282,0.13563,-0.0415663
283,0.283,0.13563,-0.0415663
284,0.284,0.13563,-0.0415663
285,0.285,0.13563,-0.0415663
286,0.286,0.13563,-0.0415663
287,0.287,0.13563,-0.0415663
288,0.288,0.13563,-0.0415663
289,0.289,0.13563,-0.0415663
290,0.29,0.13563,-0.0415663
291,0.291,0.13563,-0.0415663
292,0.292,0.13563,-0.0415663
293,0.293,0.13563,-0.0415663
294,0.294,0.132153,-0.0415663
295,0.295,0.132153,-0.0415663
296,0.296,0.13563,-0.0415663
297,0.297,0.13563,-0.0415663
298,0.298,0.13563,-0.0415663
299,0.299,0.13563,-0.0415663
300,0.3,0.13563,-0.0415663
301,0.301,0.13563,-0.0415663
302,0.302,0.13563,-0.0415663
303,0.303,0.13563,-0.0415663
304,0.304,0.13563,-0.0415663
305,0.305,0.13563,-0.0415663
306,0.306,0.13563,-0.0415663
307,0.307,0.13563,-0.0415663
308,0.308,0.132153,-0.0415663
309,0.309,0.133892,-0.0415663
310,0.31,0.133892,-0.0415663
311,0.311,0.13563,-0.0415663
312,0.312,0.13563,-0.0415663
313,0.313,0.13563,-0.0415663
314,0.314,0.13563,-0.0415663
315,0.315,0.13563,-0.0415663
316,0.316,0.13563,-0.0415663
317,0.317,0.13563,-0.0415663
318,0.318,0.13563,-0.0415663
319,0.319,0.13563,-0.0415663
320,0.32,0.13563,-0.0415663
321,0.321,0.133892,-0.0415663
322,0.322,0.133892,-0.0415663
323,0.323,0.133892,-0.0415663
324,0.324,0.132153,-0.0415663
325,0.325,0.13563,-0.0415663
326,0.326,0.13563,-0.0415663
327,0.327,0.13563,-0.0415663
328,0.328,0.13563,-0.0415663
329,0.329,0.13563,-0.0415663
330,0.33,0.13563,-0.0415663
331,0.331,0.13563,-0.0415663
332,0.332,0.13563,-0.0415663
333,0.333,0.13563,-0.0415663
334,0.334,0.13563,-0.0415663
335,0.335,0.13563,-0.0415663
336,0.336,0.133892,-0.0415663
337,0.337,0.132153,-0.0415663
338,0.338,0.133892,-0.0415663
339,0.339,0.133892,-0.0415663
340,0.34,0.13563,-0.0415663
341,0.341,0.13563,-0.0415663
342,0.342,0.13563,-0.0415663
343,0.343,0.13563,-0.0415663
344,0.344,0.13563,-0.0415663
345,0.345,0.13563,-0.0415663
346,0.346,0.13563,-0.0415663
347,0.347,0.13563,-0.0415663
348,0.348,0.13563,-0.0415663
349,0.349,0.13563,-0.0415663
350,0.35,0.13563,-0.0415663
351,0.351,0.13563,-0.0415663
352,0.352,0.132153,-0.0415663
353,0.353,0.132153,-0.0415663
354,0.354,0.13563,-0.0415663
355,0.355,0.13563,-0.0415663
356,0.356,0.13563,-0.0415663
357,0.357,0.13563,-0.0415663
358,0.358,0.13563,-0.0415663
359,0.359,0.13563,-0.0415663
360,0.36,0.13563,-0.0415663
361,0.361,0.13563,-0.0415663
362,0.362,0.13563,-0.0415663
363,0.363,0.13563,-0.0415663
364,0.364,0.13563,-0.0415663
365,0.365,0.132153,-0.0415663
366,0.366,0.133892,-0.0415663
367,0.367,0.133892,-0.0415663
368,0.368,0.133892,-0.0415663
369,0.369,0.13563,-0.0415663
370,0.37,0.13563,-0.0415663
371,0.371,0.13563,-0.0415663
372,0.372,0.13563,-0.0415663
373,0.373,0.13563,-0.0415663
374,0.374,0.13563,-0.0415663
375,0.375,0.13563,-0.0415663
376,0.376,0.13563,-0.0415663
377,0.377,0.13563,-0.0415663
378,0.378,0.13563,-0.0415663
379,0.379,0.133892,-0.0415663
380,0.38,0.133892,-0.0415663
381,0.381,0.133892,-0.0415663
382,0.382,0.132153,-0.0415663
383,0.383,0.13563,-0.0415663
384,0.384,0.13563,-0.0415663
385,0.385,0.13563,-0.0415663
386,0.386,0.13563,-0.0415663
387,0.387,0.13563,-0.0415663
388,0.388,0.13563,-0.0415663
389,0.389,0.13563,-0.0415663
390,0.39,0.13563,-0.0415663
391,0.391,0.13563,-0.0415663
392,0.392,0.13563,-0.0415663
393,0.393,0.13563,-0.0415663
394,0.394,0.132153,-0.0415663
395,0.395,0.133892,-0.0415663
396,0.396,0.133892,-0.0415663
397,0.397,0.133892,-0.0415663
398,0.398,0.13563,-0.0415663
399,0.399,0.13563,-0.0415663
400,0.4,0.13563,-0.0415663
401,0.401,0.13563,-0.0415663
402,0.402,0.13563,-0.0415663
403,0.403,0.13563,-0.0415663
404,0.404,0.13563,-0.0415663
405,0.405,0.13563,-0.0415663
406,0.406,0.13563,-0.0415663
407,0.407,0.13563,-0.0415663
408,0.408,0.133892,-0.0415663
409,0.409,0.133892,-0.0415663
410,0.41,0.133892,-0.0415663
411,0.411,0.132153,-0.0415663
412,0.412,0.13563,-0.0415663
413,0.413,0.13563,-0.0415663
414,0.414,0.13563,-0.0415663
415,0.415,0.13563,-0.0415663
416,0.416,0.13563,-0.0415663
417,0.417,0.13563,-0.0415663
418,0.418,0.13563,-0.0415663
419,0.419,0.13563,-0.0415663
420,0.42,0.13563,-0.0415663
421,0.421,0.13563,-0.0415663
422,0.422,0.13563,-0.0415663
423,0.423,0.133892,-0.0415663
424,0.424,0.13563,-0.0415663
425,0.425,0.132153,-0.0415663
426,0.426,0.132153,-0.0415663
427,0.427,0.13563,-0.0415663
428,0.428,0.13563,-0.0415663
429,0.429,0.13563,-0.0415663
430,0.43,0.13563,-0.0415663
431,0.431,0.13563,-0.0415663
432,0.432,0.13563,-0.0415663
433,0.433,0.13563,-0.0415663
434,0.434,0.13563,-0.0415663
435,0.435,0.13563,-0.0415663
436,0.436,0.13563,-0.0415663
437,0.437,0.13563,-0.0415663
438,0.438,0.133892,-0.0415663
439,0.439,0.13563,-0.0415663
440,0.44,0.133892,-0.0415663
441,0.441,0.133892,-0.0415663
442,0.442,0.13563,-0.0415663
443,0.443,0.13563,-0.0415663
444,0.444,0.13563,-0.0415663
445,0.445,0.13563,-0.0415663
446,0.446,0.13563,-0.0415663
447,0.447,0.13563,-0.0415663
448,0.448,0.13563,-0.0415663
449,0.449,0.13563,-0.0415663
450,0.45,0.13563,-0.0415663
451,0.451,0.13563,-0.0415663
452,0.452,0.13563,-0.0415663
453,0.453,0.13563,-0.0415663
454,0.454,0.13563,-0.0415663
455,0.455,0.133892,-0.0415663
456,0.456,0.133892,-0.0415663
457,0.457,0.13563,-0.0415663
458,0.458,0.13563,-0.0415663
459,0.459,0.13563,-0.0415663
460,0.46,0.13563,-0.0415663
461,0.461,0.13563,-0.0415663
462,0.462,0.13563,-0.0415663
463,0.463,0.13563,-0.0415663
464,0.464,0.13563,-0.0415663
465,0.465,0.13563,-0.0415663
466,0.466,0.13563,-0.0415663
467,0.467,0.13563,-0.0415663
468,0.468,0.13563,-0.0415663
469,0.469,0.133892,-0.0415663
470,0.47,0.133892,-0.0415663
471,0.471,0.13563,-0.0415663
472,0.472,0.13563,-0.0415663
473,0.473,0.13563,-0.0415663
474,0.474,0.13563,-0.0415663
475,0.475,0.13563,-0.0415663
476,0.476,0.13563,-0.0415663
477,0.477,0.13563,-0.0415663
478,0.478,0.13563,-0.0415663
479,0.479,0.13563,-0.0415663
480,0.48,0.13563,-0.0415663
481,0.481,0.13563,-0.0415663
482,0.482,0.133892,-0.0415663
483,0.483,0.13563,-0.0415663
484,0.484,0.132153,-0.0415663
485,0.485,0.132153,-0.0415663
486,0.486,0.13563,-0.0415663
487,0.487,0.13563,-0.0415663
488,0.488,0.13563,-0.0415663
489,0.489,0.13563,-0.0415663
490,0.49,0.13563,-0.0415663
491,0.491,0.13563,-0.0415663
492,0.492,0.13563,-0.0415663
493,0.493,0.13563,-0.0415663
494,0.494,0.13563,-0.0415663
495,0.495,0.13563,-0.0415663
496,0.496,0.13563,-0.0415663
497,0.497,0.13563,-0.0415663
498,0.498,0.132153,-0.0415663
499,0.499,0.133892,-0.0415663
500,0.5,0.133892,-0.0415663
501,0.501,0.13563,-0.0415663
502,0.502,0.13563,-0.0415663
503,0.503,0.13563,-0.0415663
504,0.504,0.13563,-0.0415663
505,0.505,0.13563,-0.0415663
506,0.506,0.13563,-0.0415663
507,0.507,0.13563,-0.0415663
508,0.508,0.13563,-0.0415663
509,0.509,0.13563,-0.0415663
510,0.51,0.13563,-0.0415663
511,0.511,0.133892,-0.0415663
512,0.512,0.133892,-0.0415663
513,0.513,0.133892,-0.0415663
514,0.514,0.132153,-0.0415663
515,0.515,0.13563,-0.0415663
516,0.516,0.13563,-0.0415663
517,0.517,0.13563,-0.0415663
518,0.518,0.13563,-0.0415663
519,0.519,0.13563,-0.0415663
520,0.52,0.13563,-0.0415663
521,0.521,0.13563,-0.0415663
522,0.522,0.13563,-0.0415663
523,0.523,0.13563,-0.0415663
524,0.524,0.13563,-0.0415663
525,0.525,0.133892,-0.0415663
526,0.526,0.133892,-0.0415663
527,0.527,0.133892,-0.0415663
528,0.528,0.133892,-0.0415663
529,0.529,0.133892,-0.0415663
530,0.53,0.13563,-0.0415663
531,0.531,0.13563,-0.0415663
532,0.532,0.13563,-0.0415663
533,0.533,0.13563,-0.0415663
534,0.534,0.13563,-0.0415663
535,0.535,0.13563,-0.0415663
536,0.536,0.13563,-0.0415663
537,0.537,0.13563,-0.0415663
538,0.538,0.13563,-0.0415663
539,0.539,0.13563,-0.0415663
540,0.54,0.133892,-0.0415663
541,0.541,0.133892,-0.0415663
542,0.542,0.133892,-0.0415663
543,0.543,0.132153,-0.0415663
544,0.544,0.13563,-0.0415663
545,0.545,0.13563,-0.0415663
546,0.546,0.13563,-0.0415663
547,0.547,0.13563,-0.0415663
548,0.548,0.13563,-0.0415663
549,0.549,0.13563,-0.0415663
550,0.55,0.13563,-0.0415663
551,0.551,0.13563,-0.0415663
552,0.552,0.13563,-0.0415663
553,0.553,0.13563,-0.0415663
554,0.554,0.13563,-0.0415663
555,0.555,0.13563,-0.0415663
556,0.556,0.133892,-0.0415663
557,0.557,0.133892,-0.0415663
558,0.558,0.130414,-0.0415663
559,0.559,0.133892,-0.0415663
560,0.56,0.132153,-0.0415663
561,0.561,0.130414,-0.0415663
562,0.562,0.123458,-0.0415663
563,0.563,0.128675,-0.0415663
564,0.564,0.128675,-0.0415663
565,0.565,0.128675,-0.0415663
566,0.566,0.126936,-0.0415663
567,0.567,0.126936,-0.0415663
568,0.568,0.128675,-0.0415663
569,0.569,0.126936,-0.0415663
570,0.57,0.128675,-0.0415663
571,0.571,0.128675,-0.0415663
572,0.572,0.128675,-0.0415663
573,0.573,0.126936,-0.0415663
574,0.574,0.128675,-0.0415663
575,0.575,0.128675,-0.0415663
576,0.576,0.126936,-0.0415663
577,0.577,0.128675,-0.0415663
578,0.578,0.126936,-0.0415663
579,0.579,0.130414,-0.0415663
580,0.58,0.126936,-0.0415663
581,0.581,0.128675,-0.0415663
582,0.582,0.128675,-0.0415663
583,0.583,0.126936,-0.0415663
584,0.584,0.128675,-0.0415663
585,0.585,0.126936,-0.0415663
586,0.586,0.128675,-0.0415663
587,0.587,0.128675,-0.0415663
588,0.588,0.128675,-0.0415663
589,0.589,0.126936,-0.0415663
590,0.59,0.128675,-0.0415663
591,0.591,0.128675,-0.0415663
592,0.592,0.126936,-0.0415663
593,0.593,0.128675,-0.0415663
594,0.594,0.126936,-0.0415663
595,0.595,0.130414,-0.0415663
596,0.596,0.126936,-0.0415663
597,0.597,0.128675,-0.0415663
598,0.598,0.126936,-0.0415663
599,0.599,0.126936,-0.0415663
600,0.6,0.128675,-0.0415663
601,0.601,0.126936,-0.0415663
602,0.602,0.130414,-0.0415663
603,0.603,0.126936,-0.0415663
604,0.604,0.128675,-0.0415663
605,0.605,0.126936,-0.0415663
606,0.606,0.126936,-0.0415663
607,0.607,0.128675,-0.0415663
608,0.608,0.126936,-0.0415663
609,0.609,0.130414,-0.0415663
610,0.61,0.126936,-0.0415663
611,0.611,0.128675,-0.0415663
612,0.612,0.126936,-0.0415663
613,0.613,0.128675,-0.0415663
614,0.614,0.128675,-0.0415663
615,0.615,0.126936,-0.0415663
616,0.616,0.128675,-0.0415663
617,0.617,0.126936,-0.0415663
618,0.618,0.130414,-0.0415663
619,0.619,0.126936,-0.0415663
620,0.62,0.128675,-0.0415663
621,0.621,0.128675,-0.0415663
622,0.622,0.126936,-0.0415663
623,0.623,0.128675,-0.0415663
624,0.624,0.126936,-0.0415663
625,0.625,0.130414,-0.0415663
626,0.626,0.126936,-0.0415663
627,0.627,0.128675,-0.0415663
628,0.628,0.126936,-0.0415663
629,0.629,0.128675,-0.0415663
630,0.63,0.128675,-0.0415663
631,0.631,0.126936,-0.0415663
632,0.632,0.128675,-0.0415663
633,0.633,0.128675,-0.0415663
634,0.634,0.128675,-0.0415663
635,0.635,0.126936,-0.0415663
636,0.636,0.128675,-0.0415663
637,0.637,0.128675,-0.0415663
638,0.638,0.126936,-0.0415663
639,0.639,0.128675,-0.0415663
640,0.64,0.126936,-0.0415663
641,0.641,0.130414,-0.0415663
642,0.642,0.126936,-0.0415663
643,0.643,0.128675,-0.0415663
644,0.644,0.128675,-0.0415663
645,0.645,0.126936,-0.0415663
646,0.646,0.128675,-0.0415663
647,0.647,0.126936,-0.0415663
648,0.648,0.130414,-0.0415663
649,0.649,0.126936,-0.0415663
650,0.65,0.128675,-0.0415663
651,0.651,0.126936,-0.0415663
652,0.652,0.132153,-0.0415663
653,0.653,0.132153,-0.0415663
654,0.654,0.132153,-0.0415663
655,0.655,0.132153,-0.0415663
656,0.656,0.133892,-0.0415663
657,0.657,0.146063,-0.0415663
658,0.658,0.0504267,-0.0415663
659,0.659,0.0539044,-0.0415663
660,0.66,0.0539044,-0.0415663
661,0.661,0.0539044,-0.0415663
662,0.662,0.0539044,-0.0415663
663,0.663,0.0539044,-0.0415663
664,0.664,0.0539044,-0.0415663
